<svg xmlns="http://www.w3.org/2000/svg" width="192" height="60" viewBox="0 0 192 60">
    <path fill="#FFF" fill-rule="nonzero" d="M16.497 18.725c-1.299 0-2.466-2.17-5.513-2.17-3.678 0-7.487 2.617-7.487 6.591a7.037 7.037 0 0 0 2.023 4.975 6.936 6.936 0 0 0 4.927 2.07c3.135 0 4.932-1.944 5.913-1.944.9 0 1.837.63 1.837 1.579 0 2.572-5.827 3.704-7.756 3.704C4.72 33.545.057 28.91 0 23.146c0-5.912 5.42-9.886 10.962-9.886 2.543.024 4.993.97 6.9 2.666.25.21.382.53.356.856-.021.905-.74 1.943-1.72 1.943zm12.519 14.81c-5.722.016-10.384-4.62-10.441-10.383 0-5.912 5.42-9.887 10.961-9.887a10.331 10.331 0 0 1 7.358 3.012 10.482 10.482 0 0 1 3.084 7.372c.021 5.912-5.405 9.887-10.962 9.887zm.548-16.974c-3.678 0-7.487 2.616-7.487 6.591a7.037 7.037 0 0 0 2.023 4.975 6.936 6.936 0 0 0 4.927 2.069c3.628 0 7.487-2.573 7.487-6.547-.012-3.88-3.11-7.034-6.961-7.088h.01zm40.832 16.975a1.637 1.637 0 0 1-1.218-.435 1.661 1.661 0 0 1-.53-1.188v-11.04c0-2.618-2.154-4.202-4.615-4.202-3.047 0-4.346 1.987-4.976 4.742 0 .088-.088.226-.088.315v10.019a1.759 1.759 0 0 1-1.749 1.627 1.759 1.759 0 0 1-1.748-1.627v-10.4c0-2.799-1.524-4.786-4.44-4.786-2.915 0-4.483 1.805-5.2 4.515 0 .044-.045.138-.045.183v10.654a1.759 1.759 0 0 1-1.748 1.627 1.759 1.759 0 0 1-1.749-1.627V15.749c0-1.22 1.097-1.943 2.193-1.943.58 0 1.299.226 1.299.905.806-1.037 4.078-1.446 5.377-1.446a7.318 7.318 0 0 1 6.363 3.312 9.29 9.29 0 0 1 6.928-3.224c4.121 0 7.711 3.313 7.711 7.491v11.041c0 .46-.19.9-.525 1.212a1.637 1.637 0 0 1-1.24.439zm14.623 0a11.106 11.106 0 0 1-7.125-2.617V41.12c.001.458-.186.896-.518 1.21a1.637 1.637 0 0 1-1.23.446 1.67 1.67 0 0 1-1.22-.457 1.695 1.695 0 0 1-.528-1.199V23.29c0-5.736 4.751-10.069 10.353-10.069 5.601 0 10.622 4.151 10.622 10.02a10.354 10.354 0 0 1-3.047 7.32 10.206 10.206 0 0 1-7.307 2.975zm-.29-16.931c-3.78.015-6.842 3.098-6.857 6.906 0 3.864 3.453 6.624 7.126 6.624 3.776-.015 6.835-3.091 6.856-6.895 0-3.88-3.425-6.635-7.125-6.635zM117.34 33.49c-1.792 0-1.748-1.352-1.748-2.66a11.77 11.77 0 0 1-7.53 2.71c-5.722.016-10.385-4.621-10.442-10.384 0-5.912 5.42-9.886 10.962-9.886 2.58-.027 5.075.923 6.993 2.66 0-1.308.044-2.528 1.749-2.528.448-.029.888.129 1.219.435.33.307.521.736.53 1.188v16.837c-.008.45-.196.878-.523 1.185a1.637 1.637 0 0 1-1.21.443zm-8.742-16.93c-3.677 0-7.487 2.616-7.487 6.591a7.037 7.037 0 0 0 2.024 4.975 6.936 6.936 0 0 0 4.926 2.069c3.628 0 7.487-2.573 7.487-6.547-.012-3.876-3.102-7.028-6.95-7.088zm16.311 10.428V16.334c-1.342 0-3.54.36-3.54-1.656 0-2.015 2.192-1.656 3.54-1.656V7.397c.009-.455.2-.887.528-1.199a1.67 1.67 0 0 1 1.22-.457c.455-.029.9.133 1.231.446.332.314.519.752.518 1.21v5.598h4.346c.916 0 1.658.747 1.658 1.67 0 .922-.742 1.67-1.658 1.67h-4.346v10.654c0 1.805 1.03 3.312 2.96 3.312.548 0 1.096-.182 1.567-.182.422.012.82.195 1.106.506.287.312.437.726.418 1.15 0 1.76-2.242 1.943-3.584 1.943-3.766-.006-5.964-3.163-5.964-6.73zm13.494 6.547c-.454.029-.9-.133-1.23-.447a1.662 1.662 0 0 1-.518-1.21V14.618c0-.973.783-1.761 1.748-1.761.966 0 1.749.788 1.749 1.76v17.246c.005.46-.18.903-.512 1.22-.332.318-.78.482-1.237.453zm14.355-.138c-5.514 0-10.354-4.378-10.354-10.07V1.845c.009-.455.2-.887.528-1.2a1.67 1.67 0 0 1 1.22-.456c.455-.03.9.132 1.231.446.332.314.519.752.518 1.21V15.61a11.106 11.106 0 0 1 7.125-2.616 10.217 10.217 0 0 1 7.32 2.993 10.366 10.366 0 0 1 3.034 7.346c0 5.824-5.02 10.064-10.622 10.064zm.268-16.975c-3.677 0-7.125 2.76-7.125 6.624.018 3.807 3.077 6.888 6.857 6.906 3.677 0 7.125-2.76 7.125-6.624-.015-3.808-3.076-6.891-6.857-6.906zm14.322 17.113c-.454.029-.9-.133-1.23-.447a1.662 1.662 0 0 1-.519-1.21V1.761c0-.973.783-1.761 1.749-1.761.965 0 1.748.788 1.748 1.761v30.113c.003.459-.184.898-.516 1.213a1.637 1.637 0 0 1-1.232.449zm22.795-13.994l-12.908 8.937a6.637 6.637 0 0 0 4.571 1.717c3.453 0 5.202-2.208 6.457-2.208.403-.035.803.093 1.112.356.308.263.5.64.532 1.046a2.426 2.426 0 0 1-.986 1.656c-1.88 1.656-4.66 2.484-7.126 2.484-5.721.015-10.383-4.621-10.44-10.384 0-5.912 5.425-9.886 10.961-9.886a10.384 10.384 0 0 1 8.024 3.748c.342.335.549.785.581 1.264a1.658 1.658 0 0 1-.778 1.27zm-7.8-2.981c-3.677 0-7.486 2.616-7.486 6.591-.019.883.15 1.76.493 2.572l11.159-7.728a6.967 6.967 0 0 0-4.16-1.435h-.006zM89.98 54.55a6.227 6.227 0 0 1-3.996-1.468v5.724a.936.936 0 0 1-.288.684.922.922 0 0 1-.693.255.933.933 0 0 1-.69-.259.947.947 0 0 1-.291-.68V48.805a5.75 5.75 0 0 1 1.738-4.036 5.667 5.667 0 0 1 4.066-1.606c3.146 0 5.958 2.33 5.958 5.625a5.806 5.806 0 0 1-1.711 4.098 5.723 5.723 0 0 1-4.093 1.665zm-.154-9.495c-2.119 0-3.836 1.73-3.836 3.865 0 2.18 1.934 3.726 3.995 3.726 2.113-.015 3.822-1.737 3.837-3.864.005-2.181-1.93-3.727-3.996-3.727zm21.08 9.473c-1.003 0-.981-.762-.981-1.496a6.598 6.598 0 0 1-4.226 1.518c-3.212.015-5.832-2.588-5.86-5.824 0-3.312 3.043-5.52 6.161-5.52a5.753 5.753 0 0 1 3.925 1.496c0-.734 0-1.419.98-1.419.252-.016.5.072.685.244a.93.93 0 0 1 .297.667v9.45a.93.93 0 0 1-.306.65.917.917 0 0 1-.675.234zM106 45.03c-2.06 0-4.198 1.468-4.198 3.698a3.95 3.95 0 0 0 1.135 2.79 3.894 3.894 0 0 0 2.762 1.163c2.039 0 4.198-1.441 4.198-3.671-.005-2.172-1.735-3.941-3.891-3.98H106zm17.819.403c-.406 0-.905-.585-1.886-.585a2.807 2.807 0 0 0-2.071.884 2.85 2.85 0 0 0-.768 2.13v5.79a.99.99 0 0 1-.981.89.99.99 0 0 1-.981-.89v-9.456a1.099 1.099 0 0 1 1.156-1.038.71.71 0 0 1 .562.17.72.72 0 0 1 .244.537c.603-.657 1.913-.861 2.74-.861.828 0 3.02.38 3.02 1.446-.044.546-.491.97-1.035.983zm6.401 5.46v-5.99c-.756 0-1.984.204-1.984-.939 0-1.142 1.233-.938 1.984-.938v-3.141a.947.947 0 0 1 .292-.68.933.933 0 0 1 .69-.259.922.922 0 0 1 .692.255c.186.178.29.426.288.684v3.14h2.423a.93.93 0 0 1 .866.447c.183.3.183.679 0 .98a.93.93 0 0 1-.866.445h-2.439v5.995c0 1.016.581 1.85 1.644 1.85.302 0 .603-.1.883-.1a.88.88 0 0 1 .624.288.893.893 0 0 1 .23.65c0 .989-1.254 1.105-2.01 1.105-2.094-.033-3.317-1.805-3.317-3.793zm18.372 3.483a.917.917 0 0 1-.684-.244.93.93 0 0 1-.297-.667V47.39a2.22 2.22 0 0 0-.252-.783 2.777 2.777 0 0 0-2.565-1.596h-.323c-1.283-.05-2.061.889-2.44 2.054a4.486 4.486 0 0 0-.202.784v5.52a.99.99 0 0 1-.981.889.99.99 0 0 1-.981-.89v-9.102c.005-.283.125-.551.333-.742a1.02 1.02 0 0 1 .763-.268.813.813 0 0 1 .624.22.825.825 0 0 1 .258.613c.576-.635 2.088-.96 2.943-.96 2.193 0 4.78 1.849 4.78 4.256v6.072a.93.93 0 0 1-.293.669.917.917 0 0 1-.683.248zM164.87 46.7l-7.245 5.013c.704.635 1.62.978 2.565.96 1.935 0 2.916-1.242 3.623-1.242a.85.85 0 0 1 .628.197.863.863 0 0 1 .303.587 1.365 1.365 0 0 1-.548.939 6.21 6.21 0 0 1-4 1.39c-3.21.016-5.83-2.585-5.86-5.818 0-3.312 3.042-5.52 6.16-5.52a5.831 5.831 0 0 1 4.5 2.103c.192.188.309.439.33.707a.917.917 0 0 1-.456.684zm-4.384-1.656c-2.061 0-4.199 1.469-4.199 3.699-.011.496.082.99.274 1.446l6.265-4.333a3.907 3.907 0 0 0-2.33-.828l-.01.016zm16.283.387c-.405 0-.904-.585-1.885-.585a2.807 2.807 0 0 0-2.071.884 2.85 2.85 0 0 0-.768 2.13v5.79a.99.99 0 0 1-.981.89.99.99 0 0 1-.981-.89v-9.456a1.099 1.099 0 0 1 1.156-1.038.71.71 0 0 1 .561.17.72.72 0 0 1 .245.537c.603-.657 1.913-.861 2.74-.861.828 0 3.02.38 3.02 1.446-.044.546-.491.97-1.036.983zm9.685 9.323c-1.913 0-3.924-.833-4.801-2.66a4.264 4.264 0 0 1-.329-.89 1.1 1.1 0 0 1 1.13-1.065.77.77 0 0 1 .594.22c.158.154.243.37.233.592 0 1.496 2.011 1.976 3.195 1.976.981 0 2.642-.331 2.642-1.623 0-3.748-7.47-.607-7.47-5.018 0-2.406 2.192-3.593 4.351-3.593 1.738 0 3.519.761 4.199 2.456.05.103.075.217.076.331-.052.541-.52.943-1.057.911-1.13 0-.505-1.772-3.092-1.772-1.003 0-2.515.43-2.515 1.695 0 2.307 7.443-.685 7.443 5.117.005 2.357-2.637 3.323-4.599 3.323z"/>
</svg>
