<svg xmlns="http://www.w3.org/2000/svg" width="24" height="24" viewBox="0 0 24 24">
    <path fill="#000000" fill-rule="evenodd" d="M20.6380895,18.6102706 C21.1058522,19.0782228 21.1083257,19.8361566 20.6436272,20.3071543 L20.313425,20.6418327 L20.3078872,20.647409 C19.8379564,21.1175303 19.0760479,21.1175303 18.606117,20.647409 L12.0001418,14.0387565 L5.39633684,20.6452378 C4.92857421,21.1131901 4.1709475,21.1156645 3.70014058,20.6507778 L3.36559774,20.3204417 C2.89009286,19.8447804 2.89009286,19.0825631 3.36002374,18.6124418 L9.96599895,12.0037893 L3.35231405,5.38742405 C2.88190551,4.91564203 2.88286292,4.15342536 3.35338393,3.68389514 L3.68617416,3.35180569 C4.15627715,2.88269262 4.91736115,2.88317099 5.38687453,3.35287466 L12.0001418,9.96882211 L18.6138267,3.35245684 C19.0854176,2.88185765 19.8473255,2.88281544 20.3166655,3.35352715 L20.6486204,3.68645225 C21.1175434,4.15674576 21.1170652,4.91813821 20.6475518,5.38784188 L14.0342846,12.0037893 L20.6380895,18.6102706 Z"/>
</svg>
